\relax 
\providecommand\hyper@newdestlabel[2]{}
\@nameuse{bbl@beforestart}
\catcode `"\active 
\providecommand\HyperFirstAtBeginDocument{\AtBeginDocument}
\HyperFirstAtBeginDocument{\ifx\hyper@anchor\@undefined
\global\let\oldcontentsline\contentsline
\gdef\contentsline#1#2#3#4{\oldcontentsline{#1}{#2}{#3}}
\global\let\oldnewlabel\newlabel
\gdef\newlabel#1#2{\newlabelxx{#1}#2}
\gdef\newlabelxx#1#2#3#4#5#6{\oldnewlabel{#1}{{#2}{#3}}}
\AtEndDocument{\ifx\hyper@anchor\@undefined
\let\contentsline\oldcontentsline
\let\newlabel\oldnewlabel
\fi}
\fi}
\global\let\hyper@last\relax 
\gdef\HyperFirstAtBeginDocument#1{#1}
\providecommand\HyField@AuxAddToFields[1]{}
\providecommand\HyField@AuxAddToCoFields[2]{}
\babel@aux{polish}{}
\@writefile{toc}{\contentsline {chapter}{\numberline {1}Wstęp}{2}{chapter.1}\protected@file@percent }
\@writefile{lof}{\addvspace {10\p@ }}
\@writefile{lot}{\addvspace {10\p@ }}
\@writefile{toc}{\contentsline {section}{\numberline {1.1}Rodzaje języków programowania}{2}{section.1.1}\protected@file@percent }
\@writefile{toc}{\contentsline {chapter}{\numberline {2}Instalacja komponentów}{4}{chapter.2}\protected@file@percent }
\@writefile{lof}{\addvspace {10\p@ }}
\@writefile{lot}{\addvspace {10\p@ }}
\@writefile{toc}{\contentsline {section}{\numberline {2.1}Interpreter Python}{4}{section.2.1}\protected@file@percent }
\@writefile{toc}{\contentsline {subsection}{\numberline {2.1.1}Środowisko Geany}{4}{subsection.2.1.1}\protected@file@percent }
\@writefile{lof}{\contentsline {figure}{\numberline {2.1}{\ignorespaces Pobieranie interpretera Python dla Windows 10}}{5}{figure.2.1}\protected@file@percent }
\newlabel{fig:download-interpreter}{{2.1}{5}{Pobieranie interpretera Python dla Windows 10}{figure.2.1}{}}
\@writefile{lof}{\contentsline {figure}{\numberline {2.2}{\ignorespaces Dodanie Pythona do zmiennej PATH}}{5}{figure.2.2}\protected@file@percent }
\newlabel{fig:instalation-interpreter-path}{{2.2}{5}{Dodanie Pythona do zmiennej PATH}{figure.2.2}{}}
\@writefile{lof}{\contentsline {figure}{\numberline {2.3}{\ignorespaces Możliwość wyłączenia maksymalnej limitu długości ścieżki obsługiwanej przez system Windows}}{6}{figure.2.3}\protected@file@percent }
\newlabel{fig:instalation-interpreter-path-limit}{{2.3}{6}{Możliwość wyłączenia maksymalnej limitu długości ścieżki obsługiwanej przez system Windows}{figure.2.3}{}}
\@writefile{toc}{\contentsline {section}{\numberline {2.2}Zależności}{7}{section.2.2}\protected@file@percent }
\@writefile{toc}{\contentsline {subsection}{\numberline {2.2.1}pip}{7}{subsection.2.2.1}\protected@file@percent }
\@writefile{lof}{\contentsline {figure}{\numberline {2.4}{\ignorespaces Sprawdzenie aktualnie zainstalowanej wersji programu pip}}{7}{figure.2.4}\protected@file@percent }
\newlabel{fig:pip-version}{{2.4}{7}{Sprawdzenie aktualnie zainstalowanej wersji programu pip}{figure.2.4}{}}
\@writefile{toc}{\contentsline {subsection}{\numberline {2.2.2}ipython}{7}{subsection.2.2.2}\protected@file@percent }
\@writefile{lof}{\contentsline {figure}{\numberline {2.5}{\ignorespaces Program ipython}}{8}{figure.2.5}\protected@file@percent }
\newlabel{fig:ipython}{{2.5}{8}{Program ipython}{figure.2.5}{}}
\@writefile{toc}{\contentsline {subsection}{\numberline {2.2.3}Proste zależności - playsound}{8}{subsection.2.2.3}\protected@file@percent }
\@writefile{toc}{\contentsline {subsection}{\numberline {2.2.4}Zależności wymagające kompilacji - matplotlib}{8}{subsection.2.2.4}\protected@file@percent }
\@writefile{lof}{\contentsline {figure}{\numberline {2.6}{\ignorespaces Wybór komponentów}}{9}{figure.2.6}\protected@file@percent }
\newlabel{fig:vs-install}{{2.6}{9}{Wybór komponentów}{figure.2.6}{}}
